{
    "org.apache.cordova.device": {
        "source": {
            "type": "registry",
            "id": "org.apache.cordova.device"
        }
    },
    "com.moust.cordova.videoplayer": {
        "source": {
            "type": "registry",
            "id": "com.moust.cordova.videoplayer"
        }
    }
}