{
    "prepare_queue": {
        "installed": [],
        "uninstalled": []
    },
    "config_munge": {
        "files": {
            "framework": {
                "parents": {
                    "SystemConfiguration.framework": [
                        {
                            "xml": "false",
                            "count": 1
                        }
                    ],
                    "CoreData.framework": [
                        {
                            "xml": "false",
                            "count": 1
                        }
                    ],
                    "libz.dylib": [
                        {
                            "xml": "false",
                            "count": 1
                        }
                    ],
                    "libsqlite3.0.dylib": [
                        {
                            "xml": "false",
                            "count": 1
                        }
                    ],
                    "MediaPlayer.framework": [
                        {
                            "xml": "false",
                            "count": 1
                        }
                    ],
                    "Social.framework": [
                        {
                            "xml": "true",
                            "count": 1
                        }
                    ],
                    "MessageUI.framework": [
                        {
                            "xml": "true",
                            "count": 1
                        }
                    ],
                    "CoreLocation.framework": [
                        {
                            "xml": "false",
                            "count": 1
                        }
                    ],
                    "CoreGraphics.framework": [
                        {
                            "xml": "false",
                            "count": 2
                        }
                    ]
                }
            },
            "config.xml": {
                "parents": {
                    "/*": [
                        {
                            "xml": "<feature name=\"UniversalAnalytics\"><param name=\"ios-package\" value=\"UniversalAnalyticsPlugin\" /></feature>",
                            "count": 1
                        },
                        {
                            "xml": "<feature name=\"StreamingMedia\"><param name=\"ios-package\" value=\"StreamingMedia\" /></feature>",
                            "count": 1
                        },
                        {
                            "xml": "<feature name=\"SocialSharing\"><param name=\"ios-package\" value=\"SocialSharing\" /><param name=\"onload\" value=\"true\" /></feature>",
                            "count": 1
                        },
                        {
                            "xml": "<feature name=\"Device\"><param name=\"ios-package\" value=\"CDVDevice\" /></feature>",
                            "count": 1
                        },
                        {
                            "xml": "<feature name=\"Geolocation\"><param name=\"ios-package\" value=\"CDVLocation\" /></feature>",
                            "count": 1
                        },
                        {
                            "xml": "<feature name=\"Globalization\"><param name=\"ios-package\" value=\"CDVGlobalization\" /></feature>",
                            "count": 1
                        },
                        {
                            "xml": "<feature name=\"InAppBrowser\"><param name=\"ios-package\" value=\"CDVInAppBrowser\" /></feature>",
                            "count": 1
                        },
                        {
                            "xml": "<feature name=\"SplashScreen\"><param name=\"ios-package\" value=\"CDVSplashScreen\" /><param name=\"onload\" value=\"true\" /></feature>",
                            "count": 1
                        }
                    ]
                }
            },
            "*-Info.plist": {
                "parents": {
                    "NSLocationWhenInUseUsageDescription": [
                        {
                            "xml": "<string />",
                            "count": 1
                        }
                    ]
                }
            }
        }
    },
    "installed_plugins": {
        "com.danielcwilson.plugins.googleanalytics": {
            "PACKAGE_NAME": "com.ferate.icc"
        },
        "com.hutchind.cordova.plugins.streamingmedia": {
            "PACKAGE_NAME": "com.ferate.icc"
        },
        "com.moust.cordova.videoplayer": {
            "PACKAGE_NAME": "com.ferate.icc"
        },
        "nl.x-services.plugins.socialsharing": {
            "PACKAGE_NAME": "com.ferate.icc"
        },
        "org.apache.cordova.device": {
            "PACKAGE_NAME": "com.ferate.icc"
        },
        "org.apache.cordova.geolocation": {
            "PACKAGE_NAME": "com.ferate.icc"
        },
        "org.apache.cordova.globalization": {
            "PACKAGE_NAME": "com.ferate.icc"
        },
        "org.apache.cordova.inappbrowser": {
            "PACKAGE_NAME": "com.ferate.icc"
        },
        "org.apache.cordova.splashscreen": {
            "PACKAGE_NAME": "com.ferate.icc"
        }
    },
    "dependent_plugins": {}
}